School/3rd semestr/APS/semestralka/test.vcd
$date
	Mon Nov 27 04:08:24 2023
$end
$version
	Icarus Verilog
$end
$timescale
	1s
$end
$scope module testbench $end
$var wire 1 ! write_enable $end
$var wire 32 " data_to_mem [31:0] $end
$var wire 32 # address_to_mem [31:0] $end
$var reg 1 $ clk $end
$var reg 1 % reset $end
$scope module simulated_system $end
$var wire 1 $ clk $end
$var wire 1 % reset $end
$var wire 1 ! write_enable $end
$var wire 32 & pc [31:0] $end
$var wire 32 ' instruction [31:0] $end
$var wire 32 ( data_to_mem [31:0] $end
$var wire 32 ) data_from_mem [31:0] $end
$var wire 32 * address_to_mem [31:0] $end
$scope module CPU $end
$var wire 1 ! WE $end
$var wire 32 + address_to_mem [31:0] $end
$var wire 1 $ clk $end
$var wire 32 , data_to_mem [31:0] $end
$var wire 1 % reset $end
$var wire 32 - rs2 [31:0] $end
$var wire 32 . rs1 [31:0] $end
$var wire 32 / resFlag [31:0] $end
$var wire 32 0 res [31:0] $end
$var wire 32 1 instruction [31:0] $end
$var wire 32 2 immOp [31:0] $end
$var wire 3 3 immControl [2:0] $end
$var wire 32 4 data_from_mem [31:0] $end
$var wire 1 5 andOutcome $end
$var wire 32 6 addResult [31:0] $end
$var wire 1 7 Zero $end
$var wire 32 8 SrcB [31:0] $end
$var wire 1 9 RegWrite $end
$var wire 32 : PCn [31:0] $end
$var wire 32 ; PCPlus4 [31:0] $end
$var wire 32 < PC [31:0] $end
$var wire 1 = MemWrite $end
$var wire 1 > MemToReg $end
$var wire 32 ? BranchTarget [31:0] $end
$var wire 1 @ BranchOutcome $end
$var wire 1 A BranchJalx $end
$var wire 1 B BranchJalr $end
$var wire 1 C BranchJal $end
$var wire 1 D BranchBlt $end
$var wire 1 E BranchBeq $end
$var wire 1 F ALUSrc $end
$var wire 32 G ALUOutput [31:0] $end
$var wire 4 H ALUControl [3:0] $end
$scope module add4ToPC $end
$var wire 32 I a [31:0] $end
$var wire 32 J y [31:0] $end
$var wire 32 K b [31:0] $end
$upscope $end
$scope module addImmOpToPC $end
$var wire 32 L y [31:0] $end
$var wire 32 M b [31:0] $end
$var wire 32 N a [31:0] $end
$upscope $end
$scope module aluUnit $end
$var wire 32 O rs1 [31:0] $end
$var wire 32 P SrcB [31:0] $end
$var wire 4 Q ALUControl [3:0] $end
$var reg 32 R ALUOutput [31:0] $end
$var reg 1 7 Zero $end
$upscope $end
$scope module branchAnd $end
$var wire 1 7 b $end
$var wire 1 5 y $end
$var wire 1 E a $end
$upscope $end
$scope module branchOr $end
$var wire 1 A y $end
$var wire 1 B b $end
$var wire 1 C a $end
$upscope $end
$scope module branchOrCompete $end
$var wire 1 A a $end
$var wire 1 5 b $end
$var wire 1 @ y $end
$upscope $end
$scope module counter $end
$var wire 1 $ clk $end
$var wire 1 % reset $end
$var wire 32 S PCn [31:0] $end
$var reg 32 T PC [31:0] $end
$upscope $end
$scope module ctrlUnit $end
$var wire 32 U instruction [31:0] $end
$var reg 4 V ALUControl [3:0] $end
$var reg 1 F ALUSrc $end
$var reg 1 E BranchBeq $end
$var reg 1 D BranchBlt $end
$var reg 1 C BranchJal $end
$var reg 1 B BranchJalr $end
$var reg 1 > MemToReg $end
$var reg 1 = MemWrite $end
$var reg 1 9 RegWrite $end
$var reg 3 W immControl [2:0] $end
$upscope $end
$scope module decode $end
$var wire 3 X immControl [2:0] $end
$var wire 25 Y instr [31:7] $end
$var reg 32 Z immOp [31:0] $end
$upscope $end
$scope module muxToBranchTarget $end
$var wire 32 [ a [31:0] $end
$var wire 32 \ b [31:0] $end
$var wire 1 B select $end
$var wire 32 ] y [31:0] $end
$upscope $end
$scope module muxToPCn $end
$var wire 32 ^ a [31:0] $end
$var wire 32 _ b [31:0] $end
$var wire 1 @ select $end
$var wire 32 ` y [31:0] $end
$upscope $end
$scope module muxToRes $end
$var wire 1 > select $end
$var wire 32 a y [31:0] $end
$var wire 32 b b [31:0] $end
$var wire 32 c a [31:0] $end
$upscope $end
$scope module muxToResFlag $end
$var wire 32 d a [31:0] $end
$var wire 32 e b [31:0] $end
$var wire 1 A select $end
$var wire 32 f y [31:0] $end
$upscope $end
$scope module muxToSrcB $end
$var wire 32 g b [31:0] $end
$var wire 1 F select $end
$var wire 32 h y [31:0] $end
$var wire 32 i a [31:0] $end
$upscope $end
$scope module set $end
$var wire 32 j ReadData [31:0] $end
$var wire 1 9 RegWrite $end
$var wire 5 k a1 [19:15] $end
$var wire 5 l a2 [24:20] $end
$var wire 5 m a3 [11:7] $end
$var wire 1 $ clk $end
$var reg 32 n rs1 [31:0] $end
$var reg 32 o rs2 [31:0] $end
$upscope $end
$upscope $end
$scope module dmem $end
$var wire 32 p address [31:0] $end
$var wire 1 $ clk $end
$var wire 32 q rd [31:0] $end
$var wire 32 r wd [31:0] $end
$var wire 1 ! we $end
$upscope $end
$scope module imem $end
$var wire 6 s address [5:0] $end
$var wire 32 t rd [31:0] $end
$upscope $end
$upscope $end
$upscope $end
$enddefinitions $end
$comment Show the parameter values. $end
$dumpall
$end
#0
$dumpvars
b10000000010010000000011 t
b0 s
bx r
b111 q
b100 p
bx o
b0 n
b1000 m
b100 l
b0 k
b111 j
bx i
b100 h
b100 g
b100 f
b100 e
b100 d
b100 c
b111 b
b111 a
b100 `
b100 _
b100 ^
b100 ]
b100 \
b100 [
b100 Z
b1000000001001000 Y
b0 X
b0 W
b0 V
b10000000010010000000011 U
b0 T
b100 S
b100 R
b0 Q
b100 P
b0 O
b100 N
b0 M
b100 L
b0 K
b100 J
b100 I
b0 H
b100 G
1F
0E
0D
0C
0B
0A
0@
b100 ?
1>
0=
b0 <
b100 ;
b100 :
19
b100 8
07
b100 6
05
b111 4
b0 3
b100 2
b10000000010010000000011 1
b111 0
b100 /
b0 .
bx -
bx ,
b100 +
b100 *
b111 )
bx (
b10000000010010000000011 '
b0 &
1%
1$
b100 #
bx "
0!
$end
#1
0$
#2
b10000 0
b10000 a
b10000 j
b1000 /
b1000 c
b1000 f
b10000 )
b10000 4
b10000 b
b10000 q
b1000 #
b1000 *
b1000 +
b1000 p
b1000 G
b1000 R
b1000 \
b1000 d
b1000 8
b1000 P
b1000 h
b1000 2
b1000 N
b1000 Z
b1000 g
b111 "
b111 (
b111 ,
b111 r
b111 -
b111 i
b111 o
b10000000001001001 Y
b1001 m
b1000 l
b1100 ?
b1100 ]
b1100 _
b1000 :
b1000 S
b1000 `
b100000000010010010000011 '
b100000000010010010000011 1
b100000000010010010000011 U
b100000000010010010000011 t
b1 s
b1100 6
b1100 L
b1100 [
b1000 ;
b1000 J
b1000 ^
b1000 e
b100 &
b100 <
b100 K
b100 M
b100 T
1$
0%
#3
0$
#4
17
b0 /
b0 c
b0 f
b1001000000001100111 )
b1001000000001100111 4
b1001000000001100111 b
b1001000000001100111 q
b0 #
b0 *
b0 +
b0 p
b0 G
b0 R
b0 \
b0 d
b0 8
b0 P
b0 h
b0 2
b0 N
b0 Z
b0 g
b0 "
b0 (
b0 ,
b0 r
b0 -
b0 i
b0 o
b0 0
b0 a
b0 j
b10010 Y
b10010 m
b0 l
0>
b1000 ?
b1000 ]
b1000 _
b1100 :
b1100 S
b1100 `
b100100010011 '
b100100010011 1
b100100010011 U
b100100010011 t
b10 s
b1000 6
b1000 L
b1000 [
b1100 ;
b1100 J
b1100 ^
b1100 e
b1000 &
b1000 <
b1000 K
b1000 M
b1000 T
1$
#5
0$
#6
b11111111111111111111111111111001 0
b11111111111111111111111111111001 a
b11111111111111111111111111111001 j
07
b11111111111111111111111111111001 /
b11111111111111111111111111111001 c
b11111111111111111111111111111001 f
bx )
bx 4
bx b
bx q
b11111111111111111111111111111001 #
b11111111111111111111111111111001 *
b11111111111111111111111111111001 +
b11111111111111111111111111111001 p
b11111111111111111111111111111001 G
b11111111111111111111111111111001 R
b11111111111111111111111111111001 \
b11111111111111111111111111111001 d
b111 8
b111 P
b111 h
0@
b111 "
b111 (
b111 ,
b111 r
b111 -
b111 i
b111 o
b11100 2
b11100 N
b11100 Z
b11100 g
05
b10001001000011100 Y
b11100 m
b1000 l
b10010 k
b10 3
b10 W
b10 X
1E
0F
b11 H
b11 Q
b11 V
09
b101000 ?
b101000 ]
b101000 _
b10000 :
b10000 S
b10000 `
b100010010000111001100011 '
b100010010000111001100011 1
b100010010000111001100011 U
b100010010000111001100011 t
b11 s
b101000 6
b101000 L
b101000 [
b10000 ;
b10000 J
b10000 ^
b10000 e
b1100 &
b1100 <
b1100 K
b1100 M
b1100 T
1$
#7
0$
#8
b10000 /
b10000 c
b10000 f
b1 )
b1 4
b1 b
b1 q
b0 "
b0 (
b0 ,
b0 r
b0 -
b0 i
b0 o
b10000 .
b10000 O
b10000 n
b0 2
b0 N
b0 Z
b0 g
b0 8
b0 P
b0 h
b1 0
b1 a
b1 j
b10000 #
b10000 *
b10000 +
b10000 p
b10000 G
b10000 R
b10000 \
b10000 d
b100101001010 Y
b1010 m
b0 l
b1001 k
b0 3
b0 W
b0 X
1F
1>
19
b0 H
b0 Q
b0 V
0E
b10000 ?
b10000 ]
b10000 _
b10100 :
b10100 S
b10100 `
b1001010010100000011 '
b1001010010100000011 1
b1001010010100000011 U
b1001010010100000011 t
b100 s
b10000 6
b10000 L
b10000 [
b10100 ;
b10100 J
b10100 ^
b10100 e
b10000 &
b10000 <
b10000 K
b10000 M
b10000 T
1$
#9
0$
#10
07
bx )
bx 4
bx b
bx q
bx 8
bx P
bx h
bx #
bx *
bx +
bx p
bx G
bx R
bx \
bx d
1@
b11000 /
b11000 c
b11000 f
bx "
bx (
bx ,
bx r
bx -
bx i
bx o
b0 .
b0 O
b0 n
b11000 2
b11000 N
b11000 Z
b11000 g
1A
b11000 0
b11000 a
b11000 j
b110000000000000001 Y
b1 m
b11000 l
b0 k
b100 3
b100 W
b100 X
1C
0F
0>
b101100 ?
b101100 ]
b101100 _
b101100 :
b101100 S
b101100 `
b1100000000000000011101111 '
b1100000000000000011101111 1
b1100000000000000011101111 U
b1100000000000000011101111 t
b101 s
b101100 6
b101100 L
b101100 [
b11000 ;
b11000 J
b11000 ^
b11000 e
b10100 &
b10100 <
b10100 K
b10100 M
b10100 T
1$
#11
0$
#12
b1001000000001100111 )
b1001000000001100111 4
b1001000000001100111 b
b1001000000001100111 q
b10 #
b10 *
b10 +
b10 p
b10 G
b10 R
b10 \
b10 d
0@
b10 2
b10 N
b10 Z
b10 g
b10 8
b10 P
b10 h
0A
b110000 :
b110000 S
b110000 `
b10 0
b10 a
b10 j
b100000000000101 Y
b101 m
b10 l
b0 3
b0 W
b0 X
1F
0C
b101110 ?
b101110 ]
b101110 _
b10 /
b10 c
b10 f
b1000000000001010010011 '
b1000000000001010010011 1
b1000000000001010010011 U
b1000000000001010010011 t
b1011 s
b101110 6
b101110 L
b101110 [
b110000 ;
b110000 J
b110000 ^
b110000 e
b101100 &
b101100 <
b101100 K
b101100 M
b101100 T
1$
#13
0$
#14
b1 0
b1 a
b1 j
b1 /
b1 c
b1 f
b1 #
b1 *
b1 +
b1 p
b1 G
b1 R
b1 \
b1 d
b1 8
b1 P
b1 h
b1 2
b1 N
b1 Z
b1 g
b11000 "
b11000 (
b11000 ,
b11000 r
b11000 -
b11000 i
b11000 o
b10000000001011 Y
b1011 m
b1 l
b110001 ?
b110001 ]
b110001 _
b110100 :
b110100 S
b110100 `
b100000000010110010011 '
b100000000010110010011 1
b100000000010110010011 U
b100000000010110010011 t
b1100 s
b110001 6
b110001 L
b110001 [
b110100 ;
b110100 J
b110100 ^
b110100 e
b110000 &
b110000 <
b110000 K
b110000 M
b110000 T
1$
#15
0$
#16
b10000000000110 Y
b110 m
b110101 ?
b110101 ]
b110101 _
b111000 :
b111000 S
b111000 `
b100000000001100010011 '
b100000000001100010011 1
b100000000001100010011 U
b100000000001100010011 t
b1101 s
b110101 6
b110101 L
b110101 [
b111000 ;
b111000 J
b111000 ^
b111000 e
b110100 &
b110100 <
b110100 K
b110100 M
b110100 T
1$
#17
0$
#18
1@
15
17
b0 0
b0 a
b0 j
b0 /
b0 c
b0 f
b1001000000001100111 )
b1001000000001100111 4
b1001000000001100111 b
b1001000000001100111 q
b1 "
b1 (
b1 ,
b1 r
b1 -
b1 i
b1 o
b1 .
b1 O
b1 n
b101000 2
b101000 N
b101000 Z
b101000 g
b1 8
b1 P
b1 h
b0 #
b0 *
b0 +
b0 p
b0 G
b0 R
b0 \
b0 d
b1001100101000001000 Y
b1000 m
b110 l
b1010 k
b10 3
b10 W
b10 X
1E
0F
b11 H
b11 Q
b11 V
09
b1100000 ?
b1100000 ]
b1100000 _
b1100000 :
b1100000 S
b1100000 `
b10011001010000010001100011 '
b10011001010000010001100011 1
b10011001010000010001100011 U
b10011001010000010001100011 t
b1110 s
b1100000 6
b1100000 L
b1100000 [
b111100 ;
b111100 J
b111100 ^
b111100 e
b111000 &
b111000 <
b111000 K
b111000 M
b111000 T
1$
#19
0$
#20
b1001000000001100111 )
b1001000000001100111 4
b1001000000001100111 b
b1001000000001100111 q
b0 0
b0 a
b0 j
17
b0 /
b0 c
b0 f
0@
b0 "
b0 (
b0 ,
b0 r
b0 -
b0 i
b0 o
b0 .
b0 O
b0 n
b0 2
b0 N
b0 Z
b0 g
b0 8
b0 P
b0 h
b0 #
b0 *
b0 +
b0 p
b0 G
b0 R
b0 \
b0 d
05
b1100100 :
b1100100 S
b1100100 `
b1011 Y
b1011 m
b0 l
b0 k
b0 3
b0 W
b0 X
1F
b0 H
b0 Q
b0 V
19
0E
b1100000 ?
b1100000 ]
b1100000 _
b10110010011 '
b10110010011 1
b10110010011 U
b10110010011 t
b11000 s
b1100000 6
b1100000 L
b1100000 [
b1100100 ;
b1100100 J
b1100100 ^
b1100100 e
b1100000 &
b1100000 <
b1100000 K
b1100000 M
b1100000 T
1$
#21
0$
#22
07
b110 )
b110 4
b110 b
b110 q
b1101000 0
b1101000 a
b1101000 j
b11000 #
b11000 *
b11000 +
b11000 p
b11000 G
b11000 R
b11000 \
b11000 d
1@
b1101000 /
b1101000 c
b1101000 f
b11000 .
b11000 O
b11000 n
1A
b100000000 Y
b0 m
b1 k
1B
b11000 ?
b11000 ]
b11000 _
b11000 :
b11000 S
b11000 `
b1000000001100111 '
b1000000001100111 1
b1000000001100111 U
b1000000001100111 t
b11001 s
b1100100 6
b1100100 L
b1100100 [
b1101000 ;
b1101000 J
b1101000 ^
b1101000 e
b1100100 &
b1100100 <
b1100100 K
b1100100 M
b1100100 T
1$
#23
0$
#24
b1 )
b1 4
b1 b
b1 q
b11100 :
b11100 S
b11100 `
b10000 #
b10000 *
b10000 +
b10000 p
b10000 G
b10000 R
b10000 \
b10000 d
0@
b10000 .
b10000 O
b10000 n
0A
b1 0
b1 a
b1 j
b10110100101000000 Y
b1011 l
b1001 k
b1 3
b1 W
b1 X
1!
1=
1>
09
0B
b10000 /
b10000 c
b10000 f
b101101001010000000100011 '
b101101001010000000100011 1
b101101001010000000100011 U
b101101001010000000100011 t
b110 s
b11000 6
b11000 L
b11000 [
b11100 ;
b11100 J
b11100 ^
b11100 e
b11000 &
b11000 <
b11000 K
b11000 M
b11000 T
1$
#25
0$
#26
b10100 /
b10100 c
b10100 f
b101 )
b101 4
b101 b
b101 q
b10100 #
b10100 *
b10100 +
b10100 p
b10100 G
b10100 R
b10100 \
b10100 d
b100 8
b100 P
b100 h
bx "
bx (
bx ,
bx r
bx -
bx i
bx o
b100 2
b100 N
b100 Z
b100 g
b10100 0
b10100 a
b10100 j
b1000100100001001 Y
b1001 m
b100 l
b0 3
b0 W
b0 X
19
0!
0=
0>
b100000 ?
b100000 ]
b100000 _
b100000 :
b100000 S
b100000 `
b10001001000010010010011 '
b10001001000010010010011 1
b10001001000010010010011 U
b10001001000010010010011 t
b111 s
b100000 6
b100000 L
b100000 [
b100000 ;
b100000 J
b100000 ^
b100000 e
b11100 &
b11100 <
b11100 K
b11100 M
b11100 T
1$
#27
0$
#28
b1 8
b1 P
b1 h
b1 0
b1 a
b1 j
b1 2
b1 N
b1 Z
b1 g
b11000 "
b11000 (
b11000 ,
b11000 r
b11000 -
b11000 i
b11000 o
b1 /
b1 c
b1 f
b1001000000001100111 )
b1001000000001100111 4
b1001000000001100111 b
b1001000000001100111 q
b11001000010010 Y
b10010 m
b1 l
b10010 k
b1 #
b1 *
b1 +
b1 p
b1 G
b1 R
b1 \
b1 d
b100001 ?
b100001 ]
b100001 _
b100100 :
b100100 S
b100100 `
b110010000100100010011 '
b110010000100100010011 1
b110010000100100010011 U
b110010000100100010011 t
b1000 s
b0 .
b0 O
b0 n
b100001 6
b100001 L
b100001 [
b100100 ;
b100100 J
b100100 ^
b100100 e
b100000 &
b100000 <
b100000 K
b100000 M
b100000 T
1$
#29
0$
#30
1@
b1001000000001100111 )
b1001000000001100111 4
b1001000000001100111 b
b1001000000001100111 q
15
b0 0
b0 a
b0 j
17
b0 /
b0 c
b0 f
b0 "
b0 (
b0 ,
b0 r
b0 -
b0 i
b0 o
b11111111111111111111111111101000 2
b11111111111111111111111111101000 N
b11111111111111111111111111101000 Z
b11111111111111111111111111101000 g
b0 8
b0 P
b0 h
b0 #
b0 *
b0 +
b0 p
b0 G
b0 R
b0 \
b0 d
b1111111000000000000001001 Y
b1001 m
b0 l
b0 k
b10 3
b10 W
b10 X
1E
0F
b11 H
b11 Q
b11 V
09
b0 .
b0 O
b0 n
b1100 ?
b1100 ]
b1100 _
b1100 :
b1100 S
b1100 `
b11111110000000000000010011100011 '
b11111110000000000000010011100011 1
b11111110000000000000010011100011 U
b11111110000000000000010011100011 t
b1001 s
b1100 6
b1100 L
b1100 [
b101000 ;
b101000 J
b101000 ^
b101000 e
b100100 &
b100100 <
b100100 K
b100100 M
b100100 T
1$
#31
0$
#32
0@
bx )
bx 4
bx b
bx q
05
b11111111111111111111111111111010 0
b11111111111111111111111111111010 a
b11111111111111111111111111111010 j
07
b11111111111111111111111111111010 /
b11111111111111111111111111111010 c
b11111111111111111111111111111010 f
b111 8
b111 P
b111 h
b11111111111111111111111111111010 #
b11111111111111111111111111111010 *
b11111111111111111111111111111010 +
b11111111111111111111111111111010 p
b11111111111111111111111111111010 G
b11111111111111111111111111111010 R
b11111111111111111111111111111010 \
b11111111111111111111111111111010 d
b11100 2
b11100 N
b11100 Z
b11100 g
b111 "
b111 (
b111 ,
b111 r
b111 -
b111 i
b111 o
b1 .
b1 O
b1 n
b10000 :
b10000 S
b10000 `
b10001001000011100 Y
b11100 m
b1000 l
b10010 k
b101000 ?
b101000 ]
b101000 _
b100010010000111001100011 '
b100010010000111001100011 1
b100010010000111001100011 U
b100010010000111001100011 t
b11 s
b101000 6
b101000 L
b101000 [
b10000 ;
b10000 J
b10000 ^
b10000 e
b1100 &
b1100 <
b1100 K
b1100 M
b1100 T
1$
#33
0$
#34
b10100 /
b10100 c
b10100 f
b101 )
b101 4
b101 b
b101 q
b0 "
b0 (
b0 ,
b0 r
b0 -
b0 i
b0 o
b10100 .
b10100 O
b10100 n
b0 2
b0 N
b0 Z
b0 g
b0 8
b0 P
b0 h
b101 0
b101 a
b101 j
b10100 #
b10100 *
b10100 +
b10100 p
b10100 G
b10100 R
b10100 \
b10100 d
b100101001010 Y
b1010 m
b0 l
b1001 k
b0 3
b0 W
b0 X
1F
1>
19
b0 H
b0 Q
b0 V
0E
b10000 ?
b10000 ]
b10000 _
b10100 :
b10100 S
b10100 `
b1001010010100000011 '
b1001010010100000011 1
b1001010010100000011 U
b1001010010100000011 t
b100 s
b10000 6
b10000 L
b10000 [
b10100 ;
b10100 J
b10100 ^
b10100 e
b10000 &
b10000 <
b10000 K
b10000 M
b10000 T
1$
#35
0$
#36
07
bx )
bx 4
bx b
bx q
bx 8
bx P
bx h
bx #
bx *
bx +
bx p
bx G
bx R
bx \
bx d
1@
b11000 /
b11000 c
b11000 f
bx "
bx (
bx ,
bx r
bx -
bx i
bx o
b0 .
b0 O
b0 n
b11000 2
b11000 N
b11000 Z
b11000 g
1A
b11000 0
b11000 a
b11000 j
b110000000000000001 Y
b1 m
b11000 l
b0 k
b100 3
b100 W
b100 X
1C
0F
0>
b101100 ?
b101100 ]
b101100 _
b101100 :
b101100 S
b101100 `
b1100000000000000011101111 '
b1100000000000000011101111 1
b1100000000000000011101111 U
b1100000000000000011101111 t
b101 s
b101100 6
b101100 L
b101100 [
b11000 ;
b11000 J
b11000 ^
b11000 e
b10100 &
b10100 <
b10100 K
b10100 M
b10100 T
1$
#37
0$
#38
b1001000000001100111 )
b1001000000001100111 4
b1001000000001100111 b
b1001000000001100111 q
b10 #
b10 *
b10 +
b10 p
b10 G
b10 R
b10 \
b10 d
0@
b10 2
b10 N
b10 Z
b10 g
b10 8
b10 P
b10 h
0A
b110000 :
b110000 S
b110000 `
b10 0
b10 a
b10 j
b100000000000101 Y
b101 m
b10 l
b0 3
b0 W
b0 X
1F
0C
b101110 ?
b101110 ]
b101110 _
b10 /
b10 c
b10 f
b1000000000001010010011 '
b1000000000001010010011 1
b1000000000001010010011 U
b1000000000001010010011 t
b1011 s
b101110 6
b101110 L
b101110 [
b110000 ;
b110000 J
b110000 ^
b110000 e
b101100 &
b101100 <
b101100 K
b101100 M
b101100 T
1$
#39
0$
#40
b1 0
b1 a
b1 j
b1 /
b1 c
b1 f
b1 #
b1 *
b1 +
b1 p
b1 G
b1 R
b1 \
b1 d
b1 8
b1 P
b1 h
b1 2
b1 N
b1 Z
b1 g
b11000 "
b11000 (
b11000 ,
b11000 r
b11000 -
b11000 i
b11000 o
b10000000001011 Y
b1011 m
b1 l
b110001 ?
b110001 ]
b110001 _
b110100 :
b110100 S
b110100 `
b100000000010110010011 '
b100000000010110010011 1
b100000000010110010011 U
b100000000010110010011 t
b1100 s
b110001 6
b110001 L
b110001 [
b110100 ;
b110100 J
b110100 ^
b110100 e
b110000 &
b110000 <
b110000 K
b110000 M
b110000 T
1$
#41
0$
#42
b10000000000110 Y
b110 m
b110101 ?
b110101 ]
b110101 _
b111000 :
b111000 S
b111000 `
b100000000001100010011 '
b100000000001100010011 1
b100000000001100010011 U
b100000000001100010011 t
b1101 s
b110101 6
b110101 L
b110101 [
b111000 ;
b111000 J
b111000 ^
b111000 e
b110100 &
b110100 <
b110100 K
b110100 M
b110100 T
1$
#43
0$
#44
b100 0
b100 a
b100 j
b100 /
b100 c
b100 f
b111 )
b111 4
b111 b
b111 q
b1 "
b1 (
b1 ,
b1 r
b1 -
b1 i
b1 o
b101 .
b101 O
b101 n
b101000 2
b101000 N
b101000 Z
b101000 g
b1 8
b1 P
b1 h
b100 #
b100 *
b100 +
b100 p
b100 G
b100 R
b100 \
b100 d
b1001100101000001000 Y
b1000 m
b110 l
b1010 k
b10 3
b10 W
b10 X
1E
0F
b11 H
b11 Q
b11 V
09
b1100000 ?
b1100000 ]
b1100000 _
b111100 :
b111100 S
b111100 `
b10011001010000010001100011 '
b10011001010000010001100011 1
b10011001010000010001100011 U
b10011001010000010001100011 t
b1110 s
b1100000 6
b1100000 L
b1100000 [
b111100 ;
b111100 J
b111100 ^
b111100 e
b111000 &
b111000 <
b111000 K
b111000 M
b111000 T
1$
#45
0$
#46
b101 0
b101 a
b101 j
b101 /
b101 c
b101 f
b101 #
b101 *
b101 +
b101 p
b101 G
b101 R
b101 \
b101 d
b0 8
b0 P
b0 h
b100100 2
b100100 N
b100100 Z
b100100 g
b0 "
b0 (
b0 ,
b0 r
b0 -
b0 i
b0 o
b1000000101000000100 Y
b100 m
b0 l
b1100000 ?
b1100000 ]
b1100000 _
b1000000 :
b1000000 S
b1000000 `
b10000001010000001001100011 '
b10000001010000001001100011 1
b10000001010000001001100011 U
b10000001010000001001100011 t
b1111 s
b1100000 6
b1100000 L
b1100000 [
b1000000 ;
b1000000 J
b1000000 ^
b1000000 e
b111100 &
b111100 <
b111100 K
b111100 M
b111100 T
1$
#47
0$
#48
b11 0
b11 a
b11 j
b11 /
b11 c
b11 f
b1001000000001100111 )
b1001000000001100111 4
b1001000000001100111 b
b1001000000001100111 q
b11 #
b11 *
b11 +
b11 p
b11 G
b11 R
b11 \
b11 d
b10 8
b10 P
b10 h
b11000 2
b11000 N
b11000 Z
b11000 g
b10 "
b10 (
b10 ,
b10 r
b10 -
b10 i
b10 o
b1010101000011000 Y
b11000 m
b101 l
b1011000 ?
b1011000 ]
b1011000 _
b1000100 :
b1000100 S
b1000100 `
b10101010000110001100011 '
b10101010000110001100011 1
b10101010000110001100011 U
b10101010000110001100011 t
b10000 s
b1011000 6
b1011000 L
b1011000 [
b1000100 ;
b1000100 J
b1000100 ^
b1000100 e
b1000000 &
b1000000 <
b1000000 K
b1000000 M
b1000000 T
1$
#49
0$
#50
0@
bx )
bx 4
bx b
bx q
05
b11111111111111111111111111111101 0
b11111111111111111111111111111101 a
b11111111111111111111111111111101 j
07
b11111111111111111111111111111101 /
b11111111111111111111111111111101 c
b11111111111111111111111111111101 f
b101 8
b101 P
b101 h
b11111111111111111111111111111101 #
b11111111111111111111111111111101 *
b11111111111111111111111111111101 +
b11111111111111111111111111111101 p
b11111111111111111111111111111101 G
b11111111111111111111111111111101 R
b11111111111111111111111111111101 \
b11111111111111111111111111111101 d
b10100 2
b10100 N
b10100 Z
b10100 g
b101 "
b101 (
b101 ,
b101 r
b101 -
b101 i
b101 o
b10 .
b10 O
b10 n
b10100010100010100 Y
b10100 m
b1010 l
b101 k
b1011000 ?
b1011000 ]
b1011000 _
b1001000 :
b1001000 S
b1001000 `
b101000101000101001100011 '
b101000101000101001100011 1
b101000101000101001100011 U
b101000101000101001100011 t
b10001 s
b1011000 6
b1011000 L
b1011000 [
b1001000 ;
b1001000 J
b1001000 ^
b1001000 e
b1000100 &
b1000100 <
b1000100 K
b1000100 M
b1000100 T
1$
#51
0$
#52
07
b1 0
b1 a
b1 j
b10 8
b10 P
b10 h
b1 /
b1 c
b1 f
b1001000000001100111 )
b1001000000001100111 4
b1001000000001100111 b
b1001000000001100111 q
b10 "
b10 (
b10 ,
b10 r
b10 -
b10 i
b10 o
b101 .
b101 O
b101 n
b100101 2
b100101 N
b100101 Z
b100101 g
b1 #
b1 *
b1 +
b1 p
b1 G
b1 R
b1 \
b1 d
b1001010101011000111 Y
b111 m
b101 l
b1010 k
19
b0 3
b0 W
b0 X
b110 H
b110 Q
b110 V
0E
b1101101 ?
b1101101 ]
b1101101 _
b1001100 :
b1001100 S
b1001100 `
b10010101010110001110110011 '
b10010101010110001110110011 1
b10010101010110001110110011 U
b10010101010110001110110011 t
b10010 s
b1101101 6
b1101101 L
b1101101 [
b1001100 ;
b1001100 J
b1001100 ^
b1001100 e
b1001000 &
b1001000 <
b1001000 K
b1001000 M
b1001000 T
1$
#53
0$
#54
b1001000000001100111 )
b1001000000001100111 4
b1001000000001100111 b
b1001000000001100111 q
b1 0
b1 a
b1 j
b0 8
b0 P
b0 h
b1 /
b1 c
b1 f
b0 "
b0 (
b0 ,
b0 r
b0 -
b0 i
b0 o
b1 .
b1 O
b1 n
b10100 2
b10100 N
b10100 Z
b10100 g
b1 #
b1 *
b1 +
b1 p
b1 G
b1 R
b1 \
b1 d
b11100010100 Y
b10100 m
b0 l
b111 k
b10 3
b10 W
b10 X
1E
b11 H
b11 Q
b11 V
09
b1100000 ?
b1100000 ]
b1100000 _
b1010000 :
b1010000 S
b1010000 `
b111000101001100011 '
b111000101001100011 1
b111000101001100011 U
b111000101001100011 t
b10011 s
b1100000 6
b1100000 L
b1100000 [
b1010000 ;
b1010000 J
b1010000 ^
b1010000 e
b1001100 &
b1001100 <
b1001100 K
b1001100 M
b1001100 T
1$
#55
0$
#56
b11 0
b11 a
b11 j
b11 /
b11 c
b11 f
b1001000000001100111 )
b1001000000001100111 4
b1001000000001100111 b
b1001000000001100111 q
b11 #
b11 *
b11 +
b11 p
b11 G
b11 R
b11 \
b11 d
b11000 "
b11000 (
b11000 ,
b11000 r
b11000 -
b11000 i
b11000 o
b10 .
b10 O
b10 n
b1 2
b1 N
b1 Z
b1 g
b1 8
b1 P
b1 h
b10010100000101 Y
b101 m
b1 l
b101 k
b0 3
b0 W
b0 X
1F
b0 H
b0 Q
b0 V
19
0E
b1010001 ?
b1010001 ]
b1010001 _
b1010100 :
b1010100 S
b1010100 `
b100101000001010010011 '
b100101000001010010011 1
b100101000001010010011 U
b100101000001010010011 t
b10100 s
b1010001 6
b1010001 L
b1010001 [
b1010100 ;
b1010100 J
b1010100 ^
b1010100 e
b1010000 &
b1010000 <
b1010000 K
b1010000 M
b1010000 T
1$
#57
0$
#58
1@
15
17
b1001000000001100111 )
b1001000000001100111 4
b1001000000001100111 b
b1001000000001100111 q
b0 0
b0 a
b0 j
b0 /
b0 c
b0 f
b0 "
b0 (
b0 ,
b0 r
b0 -
b0 i
b0 o
b11111111111111111111111111110000 2
b11111111111111111111111111110000 N
b11111111111111111111111111110000 Z
b11111111111111111111111111110000 g
b0 8
b0 P
b0 h
b0 #
b0 *
b0 +
b0 p
b0 G
b0 R
b0 \
b0 d
b1111111000000000000010001 Y
b10001 m
b0 l
b0 k
b10 3
b10 W
b10 X
1E
0F
b11 H
b11 Q
b11 V
09
b0 .
b0 O
b0 n
b1000100 ?
b1000100 ]
b1000100 _
b1000100 :
b1000100 S
b1000100 `
b11111110000000000000100011100011 '
b11111110000000000000100011100011 1
b11111110000000000000100011100011 U
b11111110000000000000100011100011 t
b10101 s
b1000100 6
b1000100 L
b1000100 [
b1011000 ;
b1011000 J
b1011000 ^
b1011000 e
b1010100 &
b1010100 <
b1010100 K
b1010100 M
b1010100 T
1$
#59
0$
